^C:\INETPUB\SEBCODE2\COUNTINGSORT\COUNTINGSORT\COUNTINGSORT\DEBUG\COUNTINGSORT.OBJ|C:\INETPUB\SEBCODE2\COUNTINGSORT\COUNTINGSORT\COUNTINGSORT\DEBUG\STDAFX.OBJ
C:\INETPUB\SEBCODE2\COUNTINGSORT\COUNTINGSORT\DEBUG\COUNTINGSORT.EXE
C:\INETPUB\SEBCODE2\COUNTINGSORT\COUNTINGSORT\DEBUG\COUNTINGSORT.ILK
C:\INETPUB\SEBCODE2\COUNTINGSORT\COUNTINGSORT\DEBUG\COUNTINGSORT.PDB
