^C:\SWSOURCE\CODE2018\MERGESORT\MERGESORT\DEBUG\MERGESORT.OBJ|C:\SWSOURCE\CODE2018\MERGESORT\MERGESORT\DEBUG\STDAFX.OBJ
C:\SWSOURCE\CODE2018\MERGESORT\DEBUG\MERGESORT.EXE
C:\SWSOURCE\CODE2018\MERGESORT\DEBUG\MERGESORT.ILK
C:\SWSOURCE\CODE2018\MERGESORT\DEBUG\MERGESORT.PDB
