^C:\USERS\ADMINISTRATOR\DOCUMENTS\SEBASTIANPROGS\MERGESORTBOOKV2\MERGESORTBOOK2\MERGESORTBOOK2\DEBUG\MERGESORTBOOK2.OBJ|C:\USERS\ADMINISTRATOR\DOCUMENTS\SEBASTIANPROGS\MERGESORTBOOKV2\MERGESORTBOOK2\MERGESORTBOOK2\DEBUG\STDAFX.OBJ
C:\USERS\ADMINISTRATOR\DOCUMENTS\SEBASTIANPROGS\MERGESORTBOOKV2\MERGESORTBOOK2\DEBUG\MERGESORTBOOK2.EXE
C:\USERS\ADMINISTRATOR\DOCUMENTS\SEBASTIANPROGS\MERGESORTBOOKV2\MERGESORTBOOK2\DEBUG\MERGESORTBOOK2.ILK
C:\USERS\ADMINISTRATOR\DOCUMENTS\SEBASTIANPROGS\MERGESORTBOOKV2\MERGESORTBOOK2\DEBUG\MERGESORTBOOK2.PDB
